^D:\SCHOOLWORK\C++\MICROSERVICESCALCCPP\GENERATED\DIVISIONOPERATION.GRPC.PB.CC|D:\SCHOOLWORK\C++\MICROSERVICESCALCCPP\GENERATED\DIVISIONOPERATION.PB.CC|D:\SCHOOLWORK\C++\MICROSERVICESCALCCPP\GENERATED\DIVISIONREQUEST.GRPC.PB.CC|D:\SCHOOLWORK\C++\MICROSERVICESCALCCPP\GENERATED\DIVISIONREQUEST.PB.CC|D:\SCHOOLWORK\C++\MICROSERVICESCALCCPP\GENERATED\MULTIPLICATIONOPERATION.GRPC.PB.CC|D:\SCHOOLWORK\C++\MICROSERVICESCALCCPP\GENERATED\MULTIPLICATIONOPERATION.PB.CC|D:\SCHOOLWORK\C++\MICROSERVICESCALCCPP\GENERATED\MULTIPLICATIONREQUEST.GRPC.PB.CC|D:\SCHOOLWORK\C++\MICROSERVICESCALCCPP\GENERATED\MULTIPLICATIONREQUEST.PB.CC|D:\SCHOOLWORK\C++\MICROSERVICESCALCCPP\GENERATED\OPERATIONRESPONSE.GRPC.PB.CC|D:\SCHOOLWORK\C++\MICROSERVICESCALCCPP\GENERATED\OPERATIONRESPONSE.PB.CC|D:\SCHOOLWORK\C++\MICROSERVICESCALCCPP\GENERATED\SUBTRACTIONOPERATION.GRPC.PB.CC|D:\SCHOOLWORK\C++\MICROSERVICESCALCCPP\GENERATED\SUBTRACTIONOPERATION.PB.CC|D:\SCHOOLWORK\C++\MICROSERVICESCALCCPP\GENERATED\SUBTRACTIONREQUEST.GRPC.PB.CC|D:\SCHOOLWORK\C++\MICROSERVICESCALCCPP\GENERATED\SUBTRACTIONREQUEST.PB.CC|D:\SCHOOLWORK\C++\MICROSERVICESCALCCPP\GENERATED\SUMOPERATION.GRPC.PB.CC|D:\SCHOOLWORK\C++\MICROSERVICESCALCCPP\GENERATED\SUMOPERATION.PB.CC|D:\SCHOOLWORK\C++\MICROSERVICESCALCCPP\GENERATED\SUMREQUEST.GRPC.PB.CC|D:\SCHOOLWORK\C++\MICROSERVICESCALCCPP\GENERATED\SUMREQUEST.PB.CC
D:\SCHOOLWORK\C++\MICROSERVICESCALCCPP\GENERATED\RELEASE\GENERATED.PDB
^D:\SCHOOLWORK\C++\MICROSERVICESCALCCPP\GENERATED\DIVISIONOPERATION.GRPC.PB.CC
D:\SCHOOLWORK\C++\MICROSERVICESCALCCPP\GENERATED\RELEASE\GENERATED.PDB
^D:\SCHOOLWORK\C++\MICROSERVICESCALCCPP\GENERATED\DIVISIONOPERATION.PB.CC
D:\SCHOOLWORK\C++\MICROSERVICESCALCCPP\GENERATED\RELEASE\GENERATED.PDB
^D:\SCHOOLWORK\C++\MICROSERVICESCALCCPP\GENERATED\DIVISIONREQUEST.GRPC.PB.CC
D:\SCHOOLWORK\C++\MICROSERVICESCALCCPP\GENERATED\RELEASE\GENERATED.PDB
^D:\SCHOOLWORK\C++\MICROSERVICESCALCCPP\GENERATED\DIVISIONREQUEST.PB.CC
D:\SCHOOLWORK\C++\MICROSERVICESCALCCPP\GENERATED\RELEASE\GENERATED.PDB
^D:\SCHOOLWORK\C++\MICROSERVICESCALCCPP\GENERATED\MULTIPLICATIONOPERATION.GRPC.PB.CC
D:\SCHOOLWORK\C++\MICROSERVICESCALCCPP\GENERATED\RELEASE\GENERATED.PDB
^D:\SCHOOLWORK\C++\MICROSERVICESCALCCPP\GENERATED\MULTIPLICATIONOPERATION.PB.CC|D:\SCHOOLWORK\C++\MICROSERVICESCALCCPP\GENERATED\MULTIPLICATIONREQUEST.GRPC.PB.CC|D:\SCHOOLWORK\C++\MICROSERVICESCALCCPP\GENERATED\MULTIPLICATIONREQUEST.PB.CC|D:\SCHOOLWORK\C++\MICROSERVICESCALCCPP\GENERATED\OPERATIONRESPONSE.GRPC.PB.CC|D:\SCHOOLWORK\C++\MICROSERVICESCALCCPP\GENERATED\OPERATIONRESPONSE.PB.CC|D:\SCHOOLWORK\C++\MICROSERVICESCALCCPP\GENERATED\SUBTRACTIONOPERATION.GRPC.PB.CC|D:\SCHOOLWORK\C++\MICROSERVICESCALCCPP\GENERATED\SUBTRACTIONOPERATION.PB.CC|D:\SCHOOLWORK\C++\MICROSERVICESCALCCPP\GENERATED\SUBTRACTIONREQUEST.GRPC.PB.CC|D:\SCHOOLWORK\C++\MICROSERVICESCALCCPP\GENERATED\SUBTRACTIONREQUEST.PB.CC|D:\SCHOOLWORK\C++\MICROSERVICESCALCCPP\GENERATED\SUMOPERATION.GRPC.PB.CC|D:\SCHOOLWORK\C++\MICROSERVICESCALCCPP\GENERATED\SUMOPERATION.PB.CC|D:\SCHOOLWORK\C++\MICROSERVICESCALCCPP\GENERATED\SUMREQUEST.GRPC.PB.CC|D:\SCHOOLWORK\C++\MICROSERVICESCALCCPP\GENERATED\SUMREQUEST.PB.CC
D:\SCHOOLWORK\C++\MICROSERVICESCALCCPP\GENERATED\RELEASE\GENERATED.PDB
D:\SCHOOLWORK\C++\MICROSERVICESCALCCPP\GENERATED\RELEASE\SUMREQUEST.PB.OBJ
D:\SCHOOLWORK\C++\MICROSERVICESCALCCPP\GENERATED\RELEASE\SUMREQUEST.GRPC.PB.OBJ
D:\SCHOOLWORK\C++\MICROSERVICESCALCCPP\GENERATED\RELEASE\SUMOPERATION.PB.OBJ
D:\SCHOOLWORK\C++\MICROSERVICESCALCCPP\GENERATED\RELEASE\SUMOPERATION.GRPC.PB.OBJ
D:\SCHOOLWORK\C++\MICROSERVICESCALCCPP\GENERATED\RELEASE\SUBTRACTIONREQUEST.PB.OBJ
D:\SCHOOLWORK\C++\MICROSERVICESCALCCPP\GENERATED\RELEASE\SUBTRACTIONREQUEST.GRPC.PB.OBJ
D:\SCHOOLWORK\C++\MICROSERVICESCALCCPP\GENERATED\RELEASE\SUBTRACTIONOPERATION.PB.OBJ
D:\SCHOOLWORK\C++\MICROSERVICESCALCCPP\GENERATED\RELEASE\SUBTRACTIONOPERATION.GRPC.PB.OBJ
D:\SCHOOLWORK\C++\MICROSERVICESCALCCPP\GENERATED\RELEASE\OPERATIONRESPONSE.PB.OBJ
D:\SCHOOLWORK\C++\MICROSERVICESCALCCPP\GENERATED\RELEASE\OPERATIONRESPONSE.GRPC.PB.OBJ
D:\SCHOOLWORK\C++\MICROSERVICESCALCCPP\GENERATED\RELEASE\MULTIPLICATIONREQUEST.PB.OBJ
D:\SCHOOLWORK\C++\MICROSERVICESCALCCPP\GENERATED\RELEASE\MULTIPLICATIONREQUEST.GRPC.PB.OBJ
D:\SCHOOLWORK\C++\MICROSERVICESCALCCPP\GENERATED\RELEASE\MULTIPLICATIONOPERATION.PB.OBJ
^D:\SCHOOLWORK\C++\MICROSERVICESCALCCPP\GENERATED\MULTIPLICATIONOPERATION.PB.CC
D:\SCHOOLWORK\C++\MICROSERVICESCALCCPP\GENERATED\RELEASE\GENERATED.PDB
^D:\SCHOOLWORK\C++\MICROSERVICESCALCCPP\GENERATED\MULTIPLICATIONREQUEST.GRPC.PB.CC
D:\SCHOOLWORK\C++\MICROSERVICESCALCCPP\GENERATED\RELEASE\GENERATED.PDB
^D:\SCHOOLWORK\C++\MICROSERVICESCALCCPP\GENERATED\MULTIPLICATIONREQUEST.PB.CC
D:\SCHOOLWORK\C++\MICROSERVICESCALCCPP\GENERATED\RELEASE\GENERATED.PDB
^D:\SCHOOLWORK\C++\MICROSERVICESCALCCPP\GENERATED\OPERATIONRESPONSE.GRPC.PB.CC
D:\SCHOOLWORK\C++\MICROSERVICESCALCCPP\GENERATED\RELEASE\GENERATED.PDB
^D:\SCHOOLWORK\C++\MICROSERVICESCALCCPP\GENERATED\OPERATIONRESPONSE.PB.CC
D:\SCHOOLWORK\C++\MICROSERVICESCALCCPP\GENERATED\RELEASE\GENERATED.PDB
^D:\SCHOOLWORK\C++\MICROSERVICESCALCCPP\GENERATED\SUBTRACTIONOPERATION.GRPC.PB.CC
D:\SCHOOLWORK\C++\MICROSERVICESCALCCPP\GENERATED\RELEASE\GENERATED.PDB
^D:\SCHOOLWORK\C++\MICROSERVICESCALCCPP\GENERATED\SUBTRACTIONOPERATION.PB.CC
D:\SCHOOLWORK\C++\MICROSERVICESCALCCPP\GENERATED\RELEASE\GENERATED.PDB
^D:\SCHOOLWORK\C++\MICROSERVICESCALCCPP\GENERATED\SUBTRACTIONREQUEST.GRPC.PB.CC
D:\SCHOOLWORK\C++\MICROSERVICESCALCCPP\GENERATED\RELEASE\GENERATED.PDB
^D:\SCHOOLWORK\C++\MICROSERVICESCALCCPP\GENERATED\SUBTRACTIONREQUEST.PB.CC
D:\SCHOOLWORK\C++\MICROSERVICESCALCCPP\GENERATED\RELEASE\GENERATED.PDB
^D:\SCHOOLWORK\C++\MICROSERVICESCALCCPP\GENERATED\SUMOPERATION.GRPC.PB.CC
D:\SCHOOLWORK\C++\MICROSERVICESCALCCPP\GENERATED\RELEASE\GENERATED.PDB
^D:\SCHOOLWORK\C++\MICROSERVICESCALCCPP\GENERATED\SUMOPERATION.PB.CC
D:\SCHOOLWORK\C++\MICROSERVICESCALCCPP\GENERATED\RELEASE\GENERATED.PDB
^D:\SCHOOLWORK\C++\MICROSERVICESCALCCPP\GENERATED\SUMREQUEST.GRPC.PB.CC
D:\SCHOOLWORK\C++\MICROSERVICESCALCCPP\GENERATED\RELEASE\GENERATED.PDB
^D:\SCHOOLWORK\C++\MICROSERVICESCALCCPP\GENERATED\SUMREQUEST.PB.CC
D:\SCHOOLWORK\C++\MICROSERVICESCALCCPP\GENERATED\RELEASE\GENERATED.PDB
