^D:\SCHOOLWORK\C++\MICROSERVICESCALCCPP\GENERATED\RELEASE\DIVISIONOPERATION.GRPC.PB.OBJ|D:\SCHOOLWORK\C++\MICROSERVICESCALCCPP\GENERATED\RELEASE\DIVISIONOPERATION.PB.OBJ|D:\SCHOOLWORK\C++\MICROSERVICESCALCCPP\GENERATED\RELEASE\DIVISIONREQUEST.GRPC.PB.OBJ|D:\SCHOOLWORK\C++\MICROSERVICESCALCCPP\GENERATED\RELEASE\DIVISIONREQUEST.PB.OBJ|D:\SCHOOLWORK\C++\MICROSERVICESCALCCPP\GENERATED\RELEASE\MULTIPLICATIONOPERATION.GRPC.PB.OBJ|D:\SCHOOLWORK\C++\MICROSERVICESCALCCPP\GENERATED\RELEASE\MULTIPLICATIONOPERATION.PB.OBJ|D:\SCHOOLWORK\C++\MICROSERVICESCALCCPP\GENERATED\RELEASE\MULTIPLICATIONREQUEST.GRPC.PB.OBJ|D:\SCHOOLWORK\C++\MICROSERVICESCALCCPP\GENERATED\RELEASE\MULTIPLICATIONREQUEST.PB.OBJ|D:\SCHOOLWORK\C++\MICROSERVICESCALCCPP\GENERATED\RELEASE\OPERATIONRESPONSE.GRPC.PB.OBJ|D:\SCHOOLWORK\C++\MICROSERVICESCALCCPP\GENERATED\RELEASE\OPERATIONRESPONSE.PB.OBJ|D:\SCHOOLWORK\C++\MICROSERVICESCALCCPP\GENERATED\RELEASE\SUBTRACTIONOPERATION.GRPC.PB.OBJ|D:\SCHOOLWORK\C++\MICROSERVICESCALCCPP\GENERATED\RELEASE\SUBTRACTIONOPERATION.PB.OBJ|D:\SCHOOLWORK\C++\MICROSERVICESCALCCPP\GENERATED\RELEASE\SUBTRACTIONREQUEST.GRPC.PB.OBJ|D:\SCHOOLWORK\C++\MICROSERVICESCALCCPP\GENERATED\RELEASE\SUBTRACTIONREQUEST.PB.OBJ|D:\SCHOOLWORK\C++\MICROSERVICESCALCCPP\GENERATED\RELEASE\SUMOPERATION.GRPC.PB.OBJ|D:\SCHOOLWORK\C++\MICROSERVICESCALCCPP\GENERATED\RELEASE\SUMOPERATION.PB.OBJ|D:\SCHOOLWORK\C++\MICROSERVICESCALCCPP\GENERATED\RELEASE\SUMREQUEST.GRPC.PB.OBJ|D:\SCHOOLWORK\C++\MICROSERVICESCALCCPP\GENERATED\RELEASE\SUMREQUEST.PB.OBJ
D:\APPS\VCPKG-MASTER\INSTALLED\X86-WINDOWS\DEBUG\LIB\LIBPROTOBUFD.LIB
C:\WINDOWS\SYSTEM32\TZRES.DLL
D:\APPS\VCPKG-MASTER\INSTALLED\X86-WINDOWS\DEBUG\LIB\GRPC.LIB
D:\SCHOOLWORK\C++\MICROSERVICESCALCCPP\GENERATED\RELEASE\DIVISIONOPERATION.GRPC.PB.OBJ
D:\SCHOOLWORK\C++\MICROSERVICESCALCCPP\GENERATED\RELEASE\DIVISIONOPERATION.PB.OBJ
D:\SCHOOLWORK\C++\MICROSERVICESCALCCPP\GENERATED\RELEASE\DIVISIONREQUEST.GRPC.PB.OBJ
D:\SCHOOLWORK\C++\MICROSERVICESCALCCPP\GENERATED\RELEASE\DIVISIONREQUEST.PB.OBJ
D:\SCHOOLWORK\C++\MICROSERVICESCALCCPP\GENERATED\RELEASE\MULTIPLICATIONOPERATION.GRPC.PB.OBJ
D:\SCHOOLWORK\C++\MICROSERVICESCALCCPP\GENERATED\RELEASE\MULTIPLICATIONOPERATION.PB.OBJ
D:\SCHOOLWORK\C++\MICROSERVICESCALCCPP\GENERATED\RELEASE\MULTIPLICATIONREQUEST.GRPC.PB.OBJ
D:\SCHOOLWORK\C++\MICROSERVICESCALCCPP\GENERATED\RELEASE\MULTIPLICATIONREQUEST.PB.OBJ
D:\SCHOOLWORK\C++\MICROSERVICESCALCCPP\GENERATED\RELEASE\OPERATIONRESPONSE.GRPC.PB.OBJ
D:\SCHOOLWORK\C++\MICROSERVICESCALCCPP\GENERATED\RELEASE\OPERATIONRESPONSE.PB.OBJ
D:\SCHOOLWORK\C++\MICROSERVICESCALCCPP\GENERATED\RELEASE\SUBTRACTIONOPERATION.GRPC.PB.OBJ
D:\SCHOOLWORK\C++\MICROSERVICESCALCCPP\GENERATED\RELEASE\SUBTRACTIONOPERATION.PB.OBJ
D:\SCHOOLWORK\C++\MICROSERVICESCALCCPP\GENERATED\RELEASE\SUBTRACTIONREQUEST.GRPC.PB.OBJ
D:\SCHOOLWORK\C++\MICROSERVICESCALCCPP\GENERATED\RELEASE\SUBTRACTIONREQUEST.PB.OBJ
D:\SCHOOLWORK\C++\MICROSERVICESCALCCPP\GENERATED\RELEASE\SUMOPERATION.GRPC.PB.OBJ
D:\SCHOOLWORK\C++\MICROSERVICESCALCCPP\GENERATED\RELEASE\SUMOPERATION.PB.OBJ
D:\SCHOOLWORK\C++\MICROSERVICESCALCCPP\GENERATED\RELEASE\SUMREQUEST.GRPC.PB.OBJ
D:\SCHOOLWORK\C++\MICROSERVICESCALCCPP\GENERATED\RELEASE\SUMREQUEST.PB.OBJ
C:\WINDOWS\GLOBALIZATION\SORTING\SORTDEFAULT.NLS
