^D:\SCHOOLWORK\C++\MICROSERVICESCALCCPP\SERVER\ADDITIONSERVICEIMPL.CPP
/c /IC:\USERS\ADIMA\SOURCE\REPOS\MICROSERVICESCALCCPP\GENERATED /I"D:\APPS\VCPKG-MASTER\INSTALLED\X86-WINDOWS\INCLUDE" /I"D:\APPS\VCPKG-MASTER\INSTALLED\X86-WINDOWS\INCLUDE" /ZI /JMC /nologo /W3 /WX- /diagnostics:column /sdl /Od /Oy- /D WIN32 /D _DEBUG /D _CONSOLE /D _UNICODE /D UNICODE /Gm- /EHsc /RTC1 /MDd /GS /fp:precise /permissive- /Zc:wchar_t /Zc:forScope /Zc:inline /Fo"DEBUG\\" /Fd"DEBUG\VC142.PDB" /Gd /TP /analyze- /FC D:\SCHOOLWORK\C++\MICROSERVICESCALCCPP\SERVER\ADDITIONSERVICEIMPL.CPP
^D:\SCHOOLWORK\C++\MICROSERVICESCALCCPP\SERVER\SERVER.CPP
/c /IC:\USERS\ADIMA\SOURCE\REPOS\MICROSERVICESCALCCPP\GENERATED /I"D:\APPS\VCPKG-MASTER\INSTALLED\X86-WINDOWS\INCLUDE" /I"D:\APPS\VCPKG-MASTER\INSTALLED\X86-WINDOWS\INCLUDE" /ZI /JMC /nologo /W3 /WX- /diagnostics:column /sdl /Od /Oy- /D WIN32 /D _DEBUG /D _CONSOLE /D _UNICODE /D UNICODE /Gm- /EHsc /RTC1 /MDd /GS /fp:precise /permissive- /Zc:wchar_t /Zc:forScope /Zc:inline /Fo"DEBUG\\" /Fd"DEBUG\VC142.PDB" /Gd /TP /analyze- /FC D:\SCHOOLWORK\C++\MICROSERVICESCALCCPP\SERVER\SERVER.CPP
^D:\SCHOOLWORK\C++\CNA TEMA_1\SERVER\SERVER.CPP
/c /IC:\USERS\ADIMA\SOURCE\REPOS\MICROSERVICESCALCCPP\GENERATED /I"D:\APPS\VCPKG-MASTER\INSTALLED\X86-WINDOWS\INCLUDE" /I"D:\APPS\VCPKG-MASTER\INSTALLED\X86-WINDOWS\INCLUDE" /ZI /JMC /nologo /W3 /WX- /diagnostics:column /sdl /Od /Oy- /D WIN32 /D _DEBUG /D _CONSOLE /D _UNICODE /D UNICODE /Gm- /EHsc /RTC1 /MDd /GS /fp:precise /permissive- /Zc:wchar_t /Zc:forScope /Zc:inline /Fo"DEBUG\\" /Fd"DEBUG\VC142.PDB" /Gd /TP /analyze- /FC D:\SCHOOLWORK\C++\CNA TEMA_1\SERVER\SERVER.CPP
^D:\SCHOOLWORK\C++\CNA TEMA_1\SERVER\PRINTSERVICEIMPL.CPP
/c /IC:\USERS\ADIMA\SOURCE\REPOS\MICROSERVICESCALCCPP\GENERATED /I"D:\APPS\VCPKG-MASTER\INSTALLED\X86-WINDOWS\INCLUDE" /I"D:\APPS\VCPKG-MASTER\INSTALLED\X86-WINDOWS\INCLUDE" /ZI /JMC /nologo /W3 /WX- /diagnostics:column /sdl /Od /Oy- /D WIN32 /D _DEBUG /D _CONSOLE /D _UNICODE /D UNICODE /Gm- /EHsc /RTC1 /MDd /GS /fp:precise /permissive- /Zc:wchar_t /Zc:forScope /Zc:inline /Fo"DEBUG\\" /Fd"DEBUG\VC142.PDB" /Gd /TP /analyze- /FC D:\SCHOOLWORK\C++\CNA TEMA_1\SERVER\PRINTSERVICEIMPL.CPP
^D:\REPOS\CNA-TEMA_1\CNA TEMA_1\SERVER\PRINTSERVICEIMPL.CPP
/c /IC:\USERS\ADIMA\SOURCE\REPOS\MICROSERVICESCALCCPP\GENERATED /I"D:\APPS\VCPKG-MASTER\INSTALLED\X86-WINDOWS\INCLUDE" /I"D:\APPS\VCPKG-MASTER\INSTALLED\X86-WINDOWS\INCLUDE" /ZI /JMC /nologo /W3 /WX- /diagnostics:column /sdl /Od /Oy- /D WIN32 /D _DEBUG /D _CONSOLE /D _UNICODE /D UNICODE /Gm- /EHsc /RTC1 /MDd /GS /fp:precise /permissive- /Zc:wchar_t /Zc:forScope /Zc:inline /Fo"DEBUG\\" /Fd"DEBUG\VC142.PDB" /Gd /TP /analyze- /FC D:\REPOS\CNA-TEMA_1\CNA TEMA_1\SERVER\PRINTSERVICEIMPL.CPP
^D:\REPOS\CNA-TEMA_1\CNA TEMA_1\SERVER\SERVER.CPP
/c /IC:\USERS\ADIMA\SOURCE\REPOS\MICROSERVICESCALCCPP\GENERATED /I"D:\APPS\VCPKG-MASTER\INSTALLED\X86-WINDOWS\INCLUDE" /I"D:\APPS\VCPKG-MASTER\INSTALLED\X86-WINDOWS\INCLUDE" /ZI /JMC /nologo /W3 /WX- /diagnostics:column /sdl /Od /Oy- /D WIN32 /D _DEBUG /D _CONSOLE /D _UNICODE /D UNICODE /Gm- /EHsc /RTC1 /MDd /GS /fp:precise /permissive- /Zc:wchar_t /Zc:forScope /Zc:inline /Fo"DEBUG\\" /Fd"DEBUG\VC142.PDB" /Gd /TP /analyze- /FC D:\REPOS\CNA-TEMA_1\CNA TEMA_1\SERVER\SERVER.CPP
