^D:\SCHOOLWORK\C++\MICROSERVICESCALCCPP\DEBUG\GENERATED.LIB|D:\SCHOOLWORK\C++\MICROSERVICESCALCCPP\SERVER\DEBUG\ADDITIONSERVICEIMPL.OBJ|D:\SCHOOLWORK\C++\MICROSERVICESCALCCPP\SERVER\DEBUG\SERVER.OBJ
/OUT:"D:\SCHOOLWORK\C++\MICROSERVICESCALCCPP\DEBUG\SERVER.EXE" /INCREMENTAL /NOLOGO /LIBPATH:"D:\APPS\VCPKG-MASTER\INSTALLED\X86-WINDOWS\DEBUG\LIB" /LIBPATH:"D:\APPS\VCPKG-MASTER\INSTALLED\X86-WINDOWS\DEBUG\LIB" /LIBPATH:"D:\APPS\VCPKG-MASTER\INSTALLED\X86-WINDOWS\DEBUG\LIB\MANUAL-LINK" ABSL_BASE.LIB ABSL_STRINGS.LIB ABSL_THROW_DELEGATE.LIB ADDRESS_SORTING.LIB CARES.LIB GPR.LIB GRPC.LIB GRPC++.LIB LIBCRYPTO.LIB LIBPROTOBUFD.LIB LIBSSL.LIB UPB.LIB WS2_32.LIB ZLIBD.LIB KERNEL32.LIB USER32.LIB GDI32.LIB WINSPOOL.LIB COMDLG32.LIB ADVAPI32.LIB SHELL32.LIB OLE32.LIB OLEAUT32.LIB UUID.LIB ODBC32.LIB ODBCCP32.LIB "D:\APPS\VCPKG-MASTER\INSTALLED\X86-WINDOWS\DEBUG\LIB\*.LIB" /MANIFEST /MANIFESTUAC:"level='asInvoker' uiAccess='false'" /manifest:embed /DEBUG:FASTLINK /PDB:"D:\SCHOOLWORK\C++\MICROSERVICESCALCCPP\DEBUG\SERVER.PDB" /SUBSYSTEM:CONSOLE /TLBID:1 /DYNAMICBASE /NXCOMPAT /IMPLIB:"D:\SCHOOLWORK\C++\MICROSERVICESCALCCPP\DEBUG\SERVER.LIB" /MACHINE:X86 DEBUG\ADDITIONSERVICEIMPL.OBJ
DEBUG\SERVER.OBJ
D:\SCHOOLWORK\C++\MICROSERVICESCALCCPP\DEBUG\GENERATED.LIB
^D:\SCHOOLWORK\C++\CNA TEMA_1\DEBUG\GENERATED.LIB|D:\SCHOOLWORK\C++\CNA TEMA_1\SERVER\DEBUG\PRINTSERVICEIMPL.OBJ|D:\SCHOOLWORK\C++\CNA TEMA_1\SERVER\DEBUG\SERVER.OBJ
/OUT:"D:\SCHOOLWORK\C++\CNA TEMA_1\DEBUG\SERVER.EXE" /INCREMENTAL /NOLOGO /LIBPATH:"D:\APPS\VCPKG-MASTER\INSTALLED\X86-WINDOWS\DEBUG\LIB" /LIBPATH:"D:\APPS\VCPKG-MASTER\INSTALLED\X86-WINDOWS\DEBUG\LIB" /LIBPATH:"D:\APPS\VCPKG-MASTER\INSTALLED\X86-WINDOWS\DEBUG\LIB\MANUAL-LINK" ABSL_BASE.LIB ABSL_STRINGS.LIB ABSL_THROW_DELEGATE.LIB ADDRESS_SORTING.LIB CARES.LIB GPR.LIB GRPC.LIB GRPC++.LIB LIBCRYPTO.LIB LIBPROTOBUFD.LIB LIBSSL.LIB UPB.LIB WS2_32.LIB ZLIBD.LIB KERNEL32.LIB USER32.LIB GDI32.LIB WINSPOOL.LIB COMDLG32.LIB ADVAPI32.LIB SHELL32.LIB OLE32.LIB OLEAUT32.LIB UUID.LIB ODBC32.LIB ODBCCP32.LIB "D:\APPS\VCPKG-MASTER\INSTALLED\X86-WINDOWS\DEBUG\LIB\*.LIB" /MANIFEST /MANIFESTUAC:"level='asInvoker' uiAccess='false'" /manifest:embed /DEBUG:FASTLINK /PDB:"D:\SCHOOLWORK\C++\CNA TEMA_1\DEBUG\SERVER.PDB" /SUBSYSTEM:CONSOLE /TLBID:1 /DYNAMICBASE /NXCOMPAT /IMPLIB:"D:\SCHOOLWORK\C++\CNA TEMA_1\DEBUG\SERVER.LIB" /MACHINE:X86 DEBUG\PRINTSERVICEIMPL.OBJ
DEBUG\SERVER.OBJ
"D:\SCHOOLWORK\C++\CNA TEMA_1\DEBUG\GENERATED.LIB"
^D:\REPOS\CNA-TEMA_1\CNA TEMA_1\DEBUG\GENERATED.LIB|D:\REPOS\CNA-TEMA_1\CNA TEMA_1\SERVER\DEBUG\PRINTSERVICEIMPL.OBJ|D:\REPOS\CNA-TEMA_1\CNA TEMA_1\SERVER\DEBUG\SERVER.OBJ
/OUT:"D:\REPOS\CNA-TEMA_1\CNA TEMA_1\DEBUG\SERVER.EXE" /INCREMENTAL /NOLOGO /LIBPATH:"D:\APPS\VCPKG-MASTER\INSTALLED\X86-WINDOWS\DEBUG\LIB" /LIBPATH:"D:\APPS\VCPKG-MASTER\INSTALLED\X86-WINDOWS\DEBUG\LIB" /LIBPATH:"D:\APPS\VCPKG-MASTER\INSTALLED\X86-WINDOWS\DEBUG\LIB\MANUAL-LINK" ABSL_BASE.LIB ABSL_STRINGS.LIB ABSL_THROW_DELEGATE.LIB ADDRESS_SORTING.LIB CARES.LIB GPR.LIB GRPC.LIB GRPC++.LIB LIBCRYPTO.LIB LIBPROTOBUFD.LIB LIBSSL.LIB UPB.LIB WS2_32.LIB ZLIBD.LIB KERNEL32.LIB USER32.LIB GDI32.LIB WINSPOOL.LIB COMDLG32.LIB ADVAPI32.LIB SHELL32.LIB OLE32.LIB OLEAUT32.LIB UUID.LIB ODBC32.LIB ODBCCP32.LIB "D:\APPS\VCPKG-MASTER\INSTALLED\X86-WINDOWS\DEBUG\LIB\*.LIB" /MANIFEST /MANIFESTUAC:"level='asInvoker' uiAccess='false'" /manifest:embed /DEBUG:FASTLINK /PDB:"D:\REPOS\CNA-TEMA_1\CNA TEMA_1\DEBUG\SERVER.PDB" /SUBSYSTEM:CONSOLE /TLBID:1 /DYNAMICBASE /NXCOMPAT /IMPLIB:"D:\REPOS\CNA-TEMA_1\CNA TEMA_1\DEBUG\SERVER.LIB" /MACHINE:X86 DEBUG\PRINTSERVICEIMPL.OBJ
DEBUG\SERVER.OBJ
"D:\REPOS\CNA-TEMA_1\CNA TEMA_1\DEBUG\GENERATED.LIB"
